{
  "comments": [
    {
      "name": "Сергей",
      "text": "Привет всем"
    },
    {
      "name": "Сергей",
      "text": "всем привет"
    },
    {
      "name": "Сергей",
      "text": "Hello !"
    }
  ]
}